<mxfile host="app.diagrams.net" modified="2024-02-13T10:21:48.747Z" agent="Mozilla/5.0 (X11; Linux x86_64; rv:122.0) Gecko/20100101 Firefox/122.0" etag="OIqGzCDpRN3BD2lEbMk0" version="23.1.3" type="gitlab">
  <diagram name="Page-1" id="uHUkY0xg_poTUcvLAbdq">
    <mxGraphModel dx="607" dy="761" grid="1" gridSize="10" guides="1" tooltips="1" connect="1" arrows="1" fold="1" page="1" pageScale="1" pageWidth="827" pageHeight="1169" math="0" shadow="0">
      <root>
        <mxCell id="0" />
        <mxCell id="1" parent="0" />
        <mxCell id="dHADfr7kux95JGzyAdg1-26" value="" style="html=1;overflow=block;blockSpacing=1;whiteSpace=wrap;fontSize=13;align=center;spacing=3.8;strokeColor=#ffffff;strokeOpacity=100;fillOpacity=100;rounded=1;absoluteArcSize=1;arcSize=9;fillColor=#f2f3f5;dashed=1;fixDash=1;dashPattern=3 8;strokeWidth=3;lucidId=snl2ftc9MqNx;container=1;collapsible=0;" parent="1" vertex="1">
          <mxGeometry x="1253" y="200" width="452" height="181" as="geometry" />
        </mxCell>
        <mxCell id="dHADfr7kux95JGzyAdg1-27" value="&lt;div style=&quot;display: flex; justify-content: flex-start; text-align: left; align-items: baseline; font-size: 0; line-height: 1.25;margin-top: -2px;&quot;&gt;&lt;span&gt;&lt;span style=&quot;font-size:20px;color:#333333;&quot;&gt;numérique&#xa;&lt;/span&gt;&lt;/span&gt;&lt;/div&gt;&lt;div style=&quot;display: flex; justify-content: flex-start; text-align: left; align-items: baseline; font-size: 0; line-height: 1.25;margin-top: -2px;&quot;&gt;&lt;span&gt;&lt;span style=&quot;font-size:20px;color:#333333;&quot;&gt;I2C&#xa;&lt;/span&gt;&lt;/span&gt;&lt;/div&gt;&lt;div style=&quot;display: flex; justify-content: flex-start; text-align: left; align-items: baseline; font-size: 0; line-height: 1.25;margin-top: -2px;&quot;&gt;&lt;span&gt;&lt;span style=&quot;font-size:20px;color:#333333;&quot;&gt;analogique&#xa;&lt;/span&gt;&lt;/span&gt;&lt;/div&gt;&lt;div style=&quot;display: flex; justify-content: flex-start; text-align: left; align-items: baseline; font-size: 0; line-height: 1.25;margin-top: -2px;&quot;&gt;&lt;span&gt;&lt;span style=&quot;font-size:20px;color:#333333;&quot;&gt;alimentation DC&#xa;&lt;/span&gt;&lt;/span&gt;&lt;/div&gt;&lt;div style=&quot;display: flex; justify-content: center; text-align: center; align-items: baseline; font-size: 0; line-height: 1.25;margin-top: -2px;&quot;&gt;&lt;span&gt;&lt;span style=&quot;font-size:20px;color:#333333;&quot;&gt;Convertisseur niveaux numériques&#xa;&lt;/span&gt;&lt;/span&gt;&lt;/div&gt;&lt;div style=&quot;display: flex; justify-content: center; text-align: center; align-items: baseline; font-size: 0; line-height: 1.25;margin-top: -2px;&quot;&gt;&lt;span&gt;&lt;span style=&quot;font-size:20px;color:#333333;&quot;&gt;5V &amp;lt;-&amp;gt; 3.3V&#xa;&lt;/span&gt;&lt;/span&gt;&lt;/div&gt;&lt;div style=&quot;display: flex; justify-content: flex-start; text-align: left; align-items: baseline; font-size: 0; line-height: 1.25;margin-top: -2px;&quot;&gt;&lt;span&gt;&lt;span style=&quot;font-size:20px;color:#333333;&quot;&gt;&#xa;&lt;/span&gt;&lt;/span&gt;&lt;/div&gt;&lt;div style=&quot;display: flex; justify-content: flex-start; text-align: left; align-items: baseline; font-size: 0; line-height: 1.25;margin-top: -2px;&quot;&gt;&lt;span&gt;&lt;/span&gt;&lt;/div&gt;" style="html=1;overflow=block;blockSpacing=1;whiteSpace=wrap;fontSize=13;spacing=0;verticalAlign=top;fillColor=none;strokeWidth=1.5;strokeColor=none;lucidId=snl2OnKlKhx6;" parent="dHADfr7kux95JGzyAdg1-26" vertex="1">
          <mxGeometry x="269" y="10" width="181" height="171" as="geometry" />
        </mxCell>
        <mxCell id="dHADfr7kux95JGzyAdg1-28" value="" style="html=1;overflow=block;blockSpacing=1;whiteSpace=wrap;fontSize=13;spacing=0;strokeColor=#008a0e;strokeOpacity=100;fillOpacity=100;rounded=1;absoluteArcSize=1;arcSize=9;fillColor=#54c45e;strokeWidth=3;lucidId=snl2CE9FdFm7;" parent="dHADfr7kux95JGzyAdg1-26" vertex="1">
          <mxGeometry x="31" y="19" width="225" height="3" as="geometry" />
        </mxCell>
        <mxCell id="dHADfr7kux95JGzyAdg1-29" value="" style="html=1;overflow=block;blockSpacing=1;whiteSpace=wrap;fontSize=13;spacing=0;strokeColor=#fc9432;strokeOpacity=100;fillOpacity=100;rounded=1;absoluteArcSize=1;arcSize=9;fillColor=#54c45e;strokeWidth=3;lucidId=snl2aRqAbEPb;" parent="dHADfr7kux95JGzyAdg1-26" vertex="1">
          <mxGeometry x="33" y="69" width="225" height="3" as="geometry" />
        </mxCell>
        <mxCell id="dHADfr7kux95JGzyAdg1-30" value="" style="html=1;overflow=block;blockSpacing=1;whiteSpace=wrap;fontSize=13;spacing=0;strokeColor=#e81313;strokeOpacity=100;fillOpacity=100;rounded=1;absoluteArcSize=1;arcSize=9;fillColor=#54c45e;strokeWidth=3;lucidId=snl24TNFdWeP;" parent="dHADfr7kux95JGzyAdg1-26" vertex="1">
          <mxGeometry x="31" y="92" width="225" height="3" as="geometry" />
        </mxCell>
        <mxCell id="dHADfr7kux95JGzyAdg1-31" value="" style="html=1;overflow=block;blockSpacing=1;whiteSpace=wrap;fontSize=13;spacing=0;strokeColor=#008a0e;strokeOpacity=100;fillOpacity=100;rounded=1;absoluteArcSize=1;arcSize=9;fillColor=#54c45e;dashed=1;fixDash=1;dashPattern=6 5;strokeWidth=3;lucidId=snl2CtBRhvrm;" parent="dHADfr7kux95JGzyAdg1-26" vertex="1">
          <mxGeometry x="31" y="43" width="225" height="3" as="geometry" />
        </mxCell>
        <mxCell id="dHADfr7kux95JGzyAdg1-32" value="" style="strokeColor=none;fillColor=none;whiteSpace=wrap;fontSize=13;spacing=3.8;strokeOpacity=100;rounded=1;absoluteArcSize=1;arcSize=9;strokeWidth=1.5;html=1;" parent="dHADfr7kux95JGzyAdg1-26" vertex="1">
          <mxGeometry x="249" y="112" width="20" height="57" as="geometry" />
        </mxCell>
        <mxCell id="dHADfr7kux95JGzyAdg1-33" value="" style="shape=curlyBracket;rounded=1;flipH=1;whiteSpace=wrap;fontSize=13;spacing=3.8;strokeColor=#3a414a;strokeOpacity=100;strokeWidth=1.5;" parent="dHADfr7kux95JGzyAdg1-32" vertex="1">
          <mxGeometry width="7.125" height="57" as="geometry" />
        </mxCell>
        <mxCell id="dHADfr7kux95JGzyAdg1-34" value="" style="strokeColor=none;fillColor=none;whiteSpace=wrap;fontSize=13;spacing=3.8;strokeOpacity=100;rounded=1;absoluteArcSize=1;arcSize=9;strokeWidth=1.5;" parent="dHADfr7kux95JGzyAdg1-32" vertex="1">
          <mxGeometry x="7.125" width="12.875" height="57" as="geometry" />
        </mxCell>
        <mxCell id="dHADfr7kux95JGzyAdg1-35" value="" style="html=1;jettySize=18;whiteSpace=wrap;fontSize=13;strokeColor=#008a0e;strokeOpacity=100;strokeWidth=3;rounded=1;arcSize=12;curved=1;startArrow=none;endArrow=block;endFill=1;lucidId=snl261y~hp4D;movable=1;resizable=1;rotatable=1;deletable=1;editable=1;locked=0;connectable=1;" parent="dHADfr7kux95JGzyAdg1-26" edge="1">
          <mxGeometry width="100" height="100" relative="1" as="geometry">
            <mxPoint x="116" y="130" as="sourcePoint" />
            <mxPoint x="35" y="130" as="targetPoint" />
          </mxGeometry>
        </mxCell>
        <mxCell id="dHADfr7kux95JGzyAdg1-36" value="" style="html=1;jettySize=18;whiteSpace=wrap;fontSize=13;strokeColor=#008a0e;strokeOpacity=100;strokeWidth=3;rounded=1;arcSize=12;curved=1;startArrow=block;startFill=1;endArrow=none;lucidId=snl2RUA9rVUl;" parent="dHADfr7kux95JGzyAdg1-26" edge="1">
          <mxGeometry width="100" height="100" relative="1" as="geometry">
            <mxPoint x="167" y="132" as="sourcePoint" />
            <mxPoint x="246" y="131" as="targetPoint" />
          </mxGeometry>
        </mxCell>
        <mxCell id="dHADfr7kux95JGzyAdg1-37" value="" style="html=1;jettySize=18;whiteSpace=wrap;fontSize=13;strokeColor=#008a0e;strokeOpacity=100;strokeWidth=3;rounded=1;arcSize=12;curved=1;startArrow=block;startFill=1;endArrow=none;lucidId=snl2vFqbtcbG;" parent="dHADfr7kux95JGzyAdg1-26" edge="1">
          <mxGeometry width="100" height="100" relative="1" as="geometry">
            <mxPoint x="116" y="155" as="sourcePoint" />
            <mxPoint x="35" y="155" as="targetPoint" />
          </mxGeometry>
        </mxCell>
        <mxCell id="dHADfr7kux95JGzyAdg1-38" value="" style="html=1;jettySize=18;whiteSpace=wrap;fontSize=13;strokeColor=#008a0e;strokeOpacity=100;strokeWidth=3;rounded=1;arcSize=12;curved=1;startArrow=none;endArrow=block;endFill=1;lucidId=snl2clavsjBt;" parent="dHADfr7kux95JGzyAdg1-26" edge="1">
          <mxGeometry width="100" height="100" relative="1" as="geometry">
            <mxPoint x="167" y="156" as="sourcePoint" />
            <mxPoint x="246" y="156" as="targetPoint" />
          </mxGeometry>
        </mxCell>
        <mxCell id="dHADfr7kux95JGzyAdg1-1" value="Blink LED&#xa;" style="html=1;overflow=block;blockSpacing=1;whiteSpace=wrap;fontSize=20;spacing=3.8;strokeOpacity=100;rounded=1;absoluteArcSize=1;arcSize=9;strokeWidth=1.5;lucidId=wam2Kq3MyECr;fillColor=#eeeeee;strokeColor=#36393d;" parent="1" vertex="1">
          <mxGeometry x="1892.5" y="290" width="89" height="72" as="geometry" />
        </mxCell>
        <mxCell id="dHADfr7kux95JGzyAdg1-2" value="Blink LED&#xa;" style="html=1;overflow=block;blockSpacing=1;whiteSpace=wrap;fontSize=20;spacing=3.8;strokeOpacity=100;rounded=1;absoluteArcSize=1;arcSize=9;strokeWidth=1.5;lucidId=Kam2kGSk9TJp;fillColor=#eeeeee;strokeColor=#36393d;" parent="1" vertex="1">
          <mxGeometry x="1892.5" y="370" width="89" height="77" as="geometry" />
        </mxCell>
        <mxCell id="dHADfr7kux95JGzyAdg1-3" value="Flash LED&#xa;" style="html=1;overflow=block;blockSpacing=1;whiteSpace=wrap;fontSize=20;spacing=3.8;strokeOpacity=100;rounded=1;absoluteArcSize=1;arcSize=9;strokeWidth=1.5;lucidId=I~l21GsN-wiM;fillColor=#eeeeee;strokeColor=#36393d;" parent="1" vertex="1">
          <mxGeometry x="1892.5" y="460" width="89" height="71" as="geometry" />
        </mxCell>
        <mxCell id="dHADfr7kux95JGzyAdg1-4" value="" style="html=1;jettySize=18;whiteSpace=wrap;fontSize=13;strokeColor=#008a0e;strokeOpacity=100;strokeWidth=1.5;rounded=1;arcSize=12;edgeStyle=orthogonalEdgeStyle;startArrow=block;startFill=1;endArrow=none;exitX=1.005;exitY=0.586;exitPerimeter=0;entryX=-0.005;entryY=0.569;entryPerimeter=0;lucidId=isl2nDDobucf;" parent="1" source="dHADfr7kux95JGzyAdg1-8" target="dHADfr7kux95JGzyAdg1-5" edge="1">
          <mxGeometry width="100" height="100" relative="1" as="geometry">
            <Array as="points" />
          </mxGeometry>
        </mxCell>
        <mxCell id="dHADfr7kux95JGzyAdg1-5" value="" style="html=1;overflow=block;blockSpacing=1;whiteSpace=wrap;fontSize=13;spacing=3.8;strokeOpacity=100;rounded=1;absoluteArcSize=1;arcSize=9;strokeWidth=1.5;lucidId=~il23Dk-kgkk;fillColor=#f5f5f5;gradientColor=#b3b3b3;strokeColor=#666666;" parent="1" vertex="1">
          <mxGeometry x="1669" y="574" width="160" height="206" as="geometry" />
        </mxCell>
        <mxCell id="dHADfr7kux95JGzyAdg1-6" value="" style="html=1;jettySize=18;whiteSpace=wrap;fontSize=13;strokeColor=#008a0e;strokeOpacity=100;strokeWidth=1.5;rounded=1;arcSize=12;edgeStyle=orthogonalEdgeStyle;startArrow=block;startFill=1;endArrow=none;exitX=1.005;exitY=0.434;exitPerimeter=0;entryX=-0.005;entryY=0.421;entryPerimeter=0;lucidId=iql2d-2Zj.b3;" parent="1" source="dHADfr7kux95JGzyAdg1-8" target="dHADfr7kux95JGzyAdg1-5" edge="1">
          <mxGeometry width="100" height="100" relative="1" as="geometry">
            <Array as="points" />
          </mxGeometry>
        </mxCell>
        <mxCell id="dHADfr7kux95JGzyAdg1-7" value="" style="html=1;jettySize=18;whiteSpace=wrap;fontSize=13;strokeColor=#008a0e;strokeOpacity=100;strokeWidth=1.5;rounded=1;arcSize=12;edgeStyle=orthogonalEdgeStyle;startArrow=none;endArrow=block;endFill=1;exitX=1.005;exitY=0.36;exitPerimeter=0;entryX=-0.005;entryY=0.35;entryPerimeter=0;lucidId=Qol2aMwSK3-S;" parent="1" source="dHADfr7kux95JGzyAdg1-8" target="dHADfr7kux95JGzyAdg1-5" edge="1">
          <mxGeometry width="100" height="100" relative="1" as="geometry">
            <Array as="points" />
          </mxGeometry>
        </mxCell>
        <mxCell id="dHADfr7kux95JGzyAdg1-8" value="" style="html=1;overflow=block;blockSpacing=1;whiteSpace=wrap;fontSize=13;spacing=3.8;strokeOpacity=100;rounded=1;absoluteArcSize=1;arcSize=9;strokeWidth=1.5;lucidId=1il2_6-KEyYq;fillColor=#f5f5f5;gradientColor=#b3b3b3;strokeColor=#666666;" parent="1" vertex="1">
          <mxGeometry x="1265" y="574" width="152" height="200" as="geometry" />
        </mxCell>
        <mxCell id="dHADfr7kux95JGzyAdg1-9" value="Arduino&#xa;Nano RP2040" style="html=1;overflow=block;blockSpacing=1;whiteSpace=wrap;fontSize=20;fontColor=#3a414a;spacing=0;fillColor=none;strokeWidth=1.5;strokeColor=none;lucidId=irl2oav~GlaL;" parent="1" vertex="1">
          <mxGeometry x="1682" y="580" width="132" height="43" as="geometry" />
        </mxCell>
        <mxCell id="dHADfr7kux95JGzyAdg1-10" value="&lt;div style=&quot;display: flex; justify-content: flex-start; text-align: left; align-items: baseline; font-size: 0; line-height: 1.25;margin-top: -2px;&quot;&gt;&lt;span&gt;&lt;span style=&quot;font-size:16.7px;color:#3a414a;&quot;&gt;Antenne &#xa;&lt;/span&gt;&lt;/span&gt;&lt;/div&gt;&lt;div style=&quot;display: flex; justify-content: flex-start; text-align: left; align-items: baseline; font-size: 0; line-height: 1.25;margin-top: -2px;&quot;&gt;&lt;span&gt;&lt;span style=&quot;font-size:16.7px;color:#3a414a;&quot;&gt;GSM&lt;/span&gt;&lt;/span&gt;&lt;/div&gt;" style="html=1;overflow=block;blockSpacing=1;whiteSpace=wrap;fontSize=13;spacing=0;verticalAlign=top;fillColor=none;strokeWidth=1.5;strokeColor=none;lucidId=jyl23Vy3XqJ3;" parent="1" vertex="1">
          <mxGeometry x="1182" y="628" width="75" height="40" as="geometry" />
        </mxCell>
        <mxCell id="dHADfr7kux95JGzyAdg1-11" value="&lt;div style=&quot;display: flex; justify-content: flex-end; text-align: right; align-items: baseline; font-size: 0; line-height: 1.25;margin-top: -2px;&quot;&gt;&lt;font face=&quot;Helvetica&quot;&gt;&lt;span&gt;&lt;span style=&quot;font-size: 15px; color: rgb(58, 65, 74);&quot;&gt;Tx&lt;/span&gt;&lt;/span&gt;&lt;span&gt;&lt;span style=&quot;font-size: 15px; color: rgb(58, 65, 74);&quot;&gt;&lt;br&gt;&lt;/span&gt;&lt;/span&gt;&lt;/font&gt;&lt;/div&gt;&lt;div style=&quot;display: flex; justify-content: flex-end; text-align: right; align-items: baseline; font-size: 0; line-height: 1.25;margin-top: -2px;&quot;&gt;&lt;font face=&quot;Helvetica&quot;&gt;&lt;span&gt;&lt;span style=&quot;font-size: 15px; color: rgb(58, 65, 74);&quot;&gt;Rx&lt;/span&gt;&lt;/span&gt;&lt;span&gt;&lt;span style=&quot;font-size: 15px; color: rgb(58, 65, 74);&quot;&gt;&lt;br&gt;&lt;/span&gt;&lt;/span&gt;&lt;/font&gt;&lt;/div&gt;&lt;div style=&quot;display: flex; justify-content: flex-end; text-align: right; align-items: baseline; font-size: 0; line-height: 1.25;margin-top: -2px;&quot;&gt;&lt;font face=&quot;YcEDPveJcoh8_qc568oS&quot;&gt;&lt;span&gt;&lt;span style=&quot;font-size: 15px; color: rgb(58, 65, 74);&quot;&gt;&lt;br&gt;&lt;/span&gt;&lt;/span&gt;&lt;/font&gt;&lt;/div&gt;&lt;div style=&quot;display: flex; justify-content: flex-end; text-align: right; align-items: baseline; font-size: 0; line-height: 1.25;margin-top: -2px;&quot;&gt;&lt;font face=&quot;Helvetica&quot;&gt;&lt;span&gt;&lt;span style=&quot;font-size: 15px; color: rgb(58, 65, 74);&quot;&gt;PowerKey&lt;/span&gt;&lt;/span&gt;&lt;/font&gt;&lt;/div&gt;" style="html=1;overflow=block;blockSpacing=1;whiteSpace=wrap;fontSize=13;fontFamily=Cousine;spacing=0;verticalAlign=top;fillColor=none;strokeWidth=1.5;strokeColor=none;lucidId=2ol2ThRLC8Y2;" parent="1" vertex="1">
          <mxGeometry x="1335" y="635" width="78" height="68" as="geometry" />
        </mxCell>
        <mxCell id="dHADfr7kux95JGzyAdg1-12" value="&lt;div style=&quot;display: flex; justify-content: flex-start; text-align: left; align-items: baseline; font-size: 0; line-height: 1.25;margin-top: -2px;&quot;&gt;&lt;font face=&quot;Helvetica&quot;&gt;&lt;span&gt;&lt;span style=&quot;font-size: 15px; color: rgb(58, 65, 74);&quot;&gt;Rx&lt;/span&gt;&lt;/span&gt;&lt;span&gt;&lt;span style=&quot;font-size: 15px; color: rgb(58, 65, 74);&quot;&gt;&lt;br&gt;&lt;/span&gt;&lt;/span&gt;&lt;/font&gt;&lt;/div&gt;&lt;div style=&quot;display: flex; justify-content: flex-start; text-align: left; align-items: baseline; font-size: 0; line-height: 1.25;margin-top: -2px;&quot;&gt;&lt;font face=&quot;Helvetica&quot;&gt;&lt;span&gt;&lt;span style=&quot;font-size: 15px; color: rgb(58, 65, 74);&quot;&gt;Tx&lt;/span&gt;&lt;/span&gt;&lt;/font&gt;&lt;/div&gt;" style="html=1;overflow=block;blockSpacing=1;whiteSpace=wrap;fontSize=13;fontFamily=Cousine;spacing=0;verticalAlign=middle;fillColor=none;strokeWidth=1.5;strokeColor=none;lucidId=Eql20tewpAD.;" parent="1" vertex="1">
          <mxGeometry x="1671" y="632" width="19" height="45" as="geometry" />
        </mxCell>
        <mxCell id="dHADfr7kux95JGzyAdg1-13" value="Batterie 12V" style="html=1;overflow=block;blockSpacing=1;whiteSpace=wrap;fontSize=20;spacing=3.8;strokeOpacity=100;rounded=1;absoluteArcSize=1;arcSize=9;strokeWidth=1.5;lucidId=Akl2k1XcJ_OP;fillColor=#ffcccc;strokeColor=#36393d;" parent="1" vertex="1">
          <mxGeometry x="1270" y="420" width="129" height="57" as="geometry" />
        </mxCell>
        <mxCell id="dHADfr7kux95JGzyAdg1-14" value="" style="html=1;jettySize=18;whiteSpace=wrap;fontSize=13;strokeColor=#e81313;strokeOpacity=100;strokeWidth=2;rounded=1;arcSize=12;edgeStyle=orthogonalEdgeStyle;startArrow=none;endArrow=block;endFill=1;exitX=0.252;exitY=1.013;exitPerimeter=0;entryX=0.245;entryY=-0.004;entryPerimeter=0;lucidId=Ukl2D3fALh_a;" parent="1" source="dHADfr7kux95JGzyAdg1-13" target="dHADfr7kux95JGzyAdg1-8" edge="1">
          <mxGeometry width="100" height="100" relative="1" as="geometry">
            <Array as="points" />
          </mxGeometry>
        </mxCell>
        <mxCell id="dHADfr7kux95JGzyAdg1-15" value="" style="html=1;jettySize=18;whiteSpace=wrap;fontSize=13;strokeColor=#e81313;strokeOpacity=100;strokeWidth=2;rounded=1;arcSize=12;edgeStyle=orthogonalEdgeStyle;startArrow=none;endArrow=block;endFill=1;exitX=1.006;exitY=0.5;exitPerimeter=0;entryX=0.14;entryY=-0.001;entryPerimeter=0;lucidId=vll2SxOi3kdY;entryDx=0;entryDy=0;curved=0;" parent="1" source="dHADfr7kux95JGzyAdg1-13" target="dHADfr7kux95JGzyAdg1-5" edge="1">
          <mxGeometry width="100" height="100" relative="1" as="geometry">
            <Array as="points" />
          </mxGeometry>
        </mxCell>
        <mxCell id="dHADfr7kux95JGzyAdg1-16" value="" style="group;dropTarget=0;pointerEvents=0;fillColor=none;" parent="1" vertex="1">
          <mxGeometry x="1497" y="628" width="72" height="72" as="geometry" />
        </mxCell>
        <mxCell id="dHADfr7kux95JGzyAdg1-17" value="" style="html=1;overflow=block;blockSpacing=1;whiteSpace=wrap;fontSize=13;align=center;spacing=3.8;strokeColor=#008a0e;strokeOpacity=100;fillOpacity=100;rounded=1;absoluteArcSize=1;arcSize=9;fillColor=#e3fae3;strokeWidth=1.5;lucidId=lml2sWP87581;" parent="dHADfr7kux95JGzyAdg1-16" vertex="1">
          <mxGeometry x="6" width="59" height="72" as="geometry" />
        </mxCell>
        <mxCell id="dHADfr7kux95JGzyAdg1-18" value="5" style="html=1;overflow=block;blockSpacing=1;whiteSpace=wrap;fontSize=16.7;fontColor=#008a0e;fontStyle=1;align=center;spacing=0;fillColor=none;strokeWidth=1.5;strokeColor=none;lucidId=lml2~8v~_dHL;" parent="dHADfr7kux95JGzyAdg1-16" vertex="1">
          <mxGeometry x="7" y="8" width="25" height="56" as="geometry" />
        </mxCell>
        <mxCell id="dHADfr7kux95JGzyAdg1-19" value="3.3" style="html=1;overflow=block;blockSpacing=1;whiteSpace=wrap;fontSize=16.7;fontColor=#008a0e;fontStyle=1;align=center;spacing=0;fillColor=none;strokeWidth=1.5;strokeColor=none;lucidId=lml2aCfvG56b;" parent="dHADfr7kux95JGzyAdg1-16" vertex="1">
          <mxGeometry x="40" y="8" width="25" height="56" as="geometry" />
        </mxCell>
        <mxCell id="dHADfr7kux95JGzyAdg1-20" value="" style="html=1;overflow=block;blockSpacing=1;whiteSpace=wrap;fontSize=13;spacing=0;strokeColor=#008a0e;strokeOpacity=100;fillOpacity=100;rounded=1;absoluteArcSize=1;arcSize=9;rotation=-270;fillColor=#54c45e;strokeWidth=1.5;lucidId=lml2AcNpxKE8;" parent="dHADfr7kux95JGzyAdg1-16" vertex="1">
          <mxGeometry y="35" width="72" height="2" as="geometry" />
        </mxCell>
        <mxCell id="dHADfr7kux95JGzyAdg1-21" value="" style="group;dropTarget=0;pointerEvents=0;" parent="1" vertex="1">
          <mxGeometry x="1357" y="311" width="63" height="60" as="geometry" />
        </mxCell>
        <mxCell id="dHADfr7kux95JGzyAdg1-22" value="" style="html=1;overflow=block;blockSpacing=1;whiteSpace=wrap;fontSize=13;align=center;spacing=3.8;strokeColor=#008a0e;strokeOpacity=100;fillOpacity=100;rounded=1;absoluteArcSize=1;arcSize=9;fillColor=#e3fae3;strokeWidth=1.5;lucidId=snl2X06rKRO1;" parent="dHADfr7kux95JGzyAdg1-21" vertex="1">
          <mxGeometry x="14" width="49" height="60" as="geometry" />
        </mxCell>
        <mxCell id="dHADfr7kux95JGzyAdg1-23" value="5" style="html=1;overflow=block;blockSpacing=1;whiteSpace=wrap;fontSize=16.7;fontColor=#008a0e;fontStyle=1;align=center;spacing=0;fillColor=none;strokeWidth=1.5;strokeColor=none;lucidId=snl2i34Xv~TR;" parent="dHADfr7kux95JGzyAdg1-21" vertex="1">
          <mxGeometry x="13" y="13" width="17" height="37" as="geometry" />
        </mxCell>
        <mxCell id="dHADfr7kux95JGzyAdg1-24" value="3.3" style="html=1;overflow=block;blockSpacing=1;whiteSpace=wrap;fontSize=16.7;fontColor=#008a0e;fontStyle=1;align=center;spacing=0;fillColor=none;strokeWidth=1.5;strokeColor=none;lucidId=snl29KvFInkD;" parent="dHADfr7kux95JGzyAdg1-21" vertex="1">
          <mxGeometry x="37" y="13" width="17" height="37" as="geometry" />
        </mxCell>
        <mxCell id="dHADfr7kux95JGzyAdg1-25" value="" style="html=1;overflow=block;blockSpacing=1;whiteSpace=wrap;fontSize=13;spacing=0;strokeColor=#008a0e;strokeOpacity=100;fillOpacity=100;rounded=1;absoluteArcSize=1;arcSize=9;rotation=-270;fillColor=#54c45e;strokeWidth=1.5;lucidId=snl2GOfNhYdM;" parent="dHADfr7kux95JGzyAdg1-21" vertex="1">
          <mxGeometry y="29" width="59" height="2" as="geometry" />
        </mxCell>
        <mxCell id="dHADfr7kux95JGzyAdg1-39" value="Shield 4G&#xa;SIM7600" style="html=1;overflow=block;blockSpacing=1;whiteSpace=wrap;fontSize=20;fontColor=#3a414a;align=left;spacing=3.8;verticalAlign=top;strokeColor=none;fillOpacity=0;fillColor=none;strokeWidth=0;lucidId=Mrl24iQ1_XWD;" parent="1" vertex="1">
          <mxGeometry x="1270" y="580" width="81" height="80" as="geometry" />
        </mxCell>
        <mxCell id="dHADfr7kux95JGzyAdg1-40" value="" style="group;dropTarget=0;pointerEvents=0;" parent="1" vertex="1">
          <mxGeometry x="1152" y="589" width="44" height="28" as="geometry" />
        </mxCell>
        <mxCell id="dHADfr7kux95JGzyAdg1-41" value="" style="html=1;overflow=block;blockSpacing=1;whiteSpace=wrap;fontSize=13;spacing=0;strokeColor=#3a414a;strokeOpacity=100;rounded=1;absoluteArcSize=1;arcSize=9;rotation=-270;strokeWidth=1.5;lucidId=jwl2tyw8.3m_;" parent="dHADfr7kux95JGzyAdg1-40" vertex="1">
          <mxGeometry x="5" width="34" height="2" as="geometry" />
        </mxCell>
        <mxCell id="dHADfr7kux95JGzyAdg1-42" value="" style="html=1;overflow=block;blockSpacing=1;whiteSpace=wrap;fontSize=13;spacing=0;strokeColor=#3a414a;strokeOpacity=100;rounded=1;absoluteArcSize=1;arcSize=9;rotation=-254.3049379676462;strokeWidth=1.5;lucidId=Iwl2Ux_pUbyy;" parent="dHADfr7kux95JGzyAdg1-40" vertex="1">
          <mxGeometry x="9" width="35" height="2" as="geometry" />
        </mxCell>
        <mxCell id="dHADfr7kux95JGzyAdg1-43" value="" style="html=1;overflow=block;blockSpacing=1;whiteSpace=wrap;fontSize=13;spacing=0;strokeColor=#3a414a;strokeOpacity=100;rounded=1;absoluteArcSize=1;arcSize=9;rotation=75.50368088736074;strokeWidth=1.5;lucidId=7wl2mtoWIzVA;" parent="dHADfr7kux95JGzyAdg1-40" vertex="1">
          <mxGeometry width="35" height="2" as="geometry" />
        </mxCell>
        <mxCell id="dHADfr7kux95JGzyAdg1-44" value="" style="html=1;overflow=block;blockSpacing=1;whiteSpace=wrap;fontSize=13;spacing=0;strokeColor=#3a414a;strokeOpacity=100;rounded=1;absoluteArcSize=1;arcSize=9;rotation=-270;strokeWidth=1.5;lucidId=jxl29xUAXIb~;" parent="dHADfr7kux95JGzyAdg1-40" vertex="1">
          <mxGeometry x="13" y="26" width="18" height="2" as="geometry" />
        </mxCell>
        <mxCell id="dHADfr7kux95JGzyAdg1-45" value="" style="group;dropTarget=0;pointerEvents=0;" parent="1" vertex="1">
          <mxGeometry x="1110" y="592" width="45" height="28" as="geometry" />
        </mxCell>
        <mxCell id="dHADfr7kux95JGzyAdg1-46" value="" style="html=1;overflow=block;blockSpacing=1;whiteSpace=wrap;fontSize=13;spacing=0;strokeColor=#3a414a;strokeOpacity=100;rounded=1;absoluteArcSize=1;arcSize=9;rotation=-270;strokeWidth=1.5;lucidId=Nxl2-lpFcH1q;" parent="dHADfr7kux95JGzyAdg1-45" vertex="1">
          <mxGeometry x="5" width="34" height="2" as="geometry" />
        </mxCell>
        <mxCell id="dHADfr7kux95JGzyAdg1-47" value="" style="html=1;overflow=block;blockSpacing=1;whiteSpace=wrap;fontSize=13;spacing=0;strokeColor=#3a414a;strokeOpacity=100;rounded=1;absoluteArcSize=1;arcSize=9;rotation=-254.3049379676462;strokeWidth=1.5;lucidId=Nxl2GQDLz5vj;" parent="dHADfr7kux95JGzyAdg1-45" vertex="1">
          <mxGeometry x="10" width="35" height="2" as="geometry" />
        </mxCell>
        <mxCell id="dHADfr7kux95JGzyAdg1-48" value="" style="html=1;overflow=block;blockSpacing=1;whiteSpace=wrap;fontSize=13;spacing=0;strokeColor=#3a414a;strokeOpacity=100;rounded=1;absoluteArcSize=1;arcSize=9;rotation=75.50368088736074;strokeWidth=1.5;lucidId=Nxl2s.B~17ht;" parent="dHADfr7kux95JGzyAdg1-45" vertex="1">
          <mxGeometry width="35" height="2" as="geometry" />
        </mxCell>
        <mxCell id="dHADfr7kux95JGzyAdg1-49" value="" style="html=1;overflow=block;blockSpacing=1;whiteSpace=wrap;fontSize=13;spacing=0;strokeColor=#3a414a;strokeOpacity=100;rounded=1;absoluteArcSize=1;arcSize=9;rotation=-270;strokeWidth=1.5;lucidId=Nxl2yRoJXzgx;" parent="dHADfr7kux95JGzyAdg1-45" vertex="1">
          <mxGeometry x="13" y="26" width="18" height="2" as="geometry" />
        </mxCell>
        <mxCell id="dHADfr7kux95JGzyAdg1-50" value="" style="html=1;jettySize=18;whiteSpace=wrap;fontSize=13;strokeColor=#3a414a;strokeOpacity=100;strokeWidth=1.5;rounded=1;arcSize=12;edgeStyle=orthogonalEdgeStyle;startArrow=none;endArrow=none;entryX=0.997;entryY=0.5;entryPerimeter=0;lucidId=2xl2dHbw8EfJ;" parent="1" target="dHADfr7kux95JGzyAdg1-44" edge="1">
          <mxGeometry width="100" height="100" relative="1" as="geometry">
            <Array as="points" />
            <mxPoint x="1262" y="643" as="sourcePoint" />
          </mxGeometry>
        </mxCell>
        <mxCell id="dHADfr7kux95JGzyAdg1-51" value="" style="html=1;jettySize=18;whiteSpace=wrap;fontSize=13;strokeColor=#3a414a;strokeOpacity=100;strokeWidth=1.5;rounded=1;arcSize=12;edgeStyle=orthogonalEdgeStyle;startArrow=none;endArrow=none;exitX=-0.005;exitY=0.717;exitPerimeter=0;entryX=0.997;entryY=0.5;entryPerimeter=0;lucidId=4yl2cOL5Rbx4;" parent="1" source="dHADfr7kux95JGzyAdg1-8" target="dHADfr7kux95JGzyAdg1-49" edge="1">
          <mxGeometry width="100" height="100" relative="1" as="geometry">
            <Array as="points" />
          </mxGeometry>
        </mxCell>
        <mxCell id="dHADfr7kux95JGzyAdg1-52" value="&lt;div style=&quot;display: flex; justify-content: flex-start; text-align: left; align-items: baseline; font-size: 0; line-height: 1.25;margin-top: -2px;&quot;&gt;&lt;span&gt;&lt;span style=&quot;font-size:16.7px;color:#3a414a;&quot;&gt;Antenne &#xa;&lt;/span&gt;&lt;/span&gt;&lt;/div&gt;&lt;div style=&quot;display: flex; justify-content: flex-start; text-align: left; align-items: baseline; font-size: 0; line-height: 1.25;margin-top: -2px;&quot;&gt;&lt;span&gt;&lt;span style=&quot;font-size:16.7px;color:#3a414a;&quot;&gt;GPS&lt;/span&gt;&lt;/span&gt;&lt;/div&gt;" style="html=1;overflow=block;blockSpacing=1;whiteSpace=wrap;fontSize=13;spacing=0;verticalAlign=top;fillColor=none;strokeWidth=1.5;strokeColor=none;lucidId=9yl2a~dbPtPK;" parent="1" vertex="1">
          <mxGeometry x="1143" y="703" width="75" height="40" as="geometry" />
        </mxCell>
        <mxCell id="dHADfr7kux95JGzyAdg1-53" value="Convertisseur DC 12/5V" style="html=1;overflow=block;blockSpacing=1;whiteSpace=wrap;fontSize=20;spacing=3.8;strokeOpacity=100;rounded=1;absoluteArcSize=1;arcSize=9;strokeWidth=1.5;lucidId=ozl26dJxAqzv;fillColor=#ffcccc;strokeColor=#36393d;" parent="1" vertex="1">
          <mxGeometry x="1452" y="508" width="129" height="57" as="geometry" />
        </mxCell>
        <mxCell id="dHADfr7kux95JGzyAdg1-54" value="Capteur DHT22&#xa;Humidité&#xa;Température" style="html=1;overflow=block;blockSpacing=1;whiteSpace=wrap;fontSize=20;spacing=3.8;strokeOpacity=100;rounded=1;absoluteArcSize=1;arcSize=9;strokeWidth=1.5;lucidId=iAl24wP3O9cr;fillColor=#ffff88;strokeColor=#36393d;" parent="1" vertex="1">
          <mxGeometry x="1883" y="645" width="198" height="75" as="geometry" />
        </mxCell>
        <mxCell id="dHADfr7kux95JGzyAdg1-55" value="" style="html=1;jettySize=18;whiteSpace=wrap;fontSize=13;strokeColor=#008a0e;strokeOpacity=100;strokeWidth=1.5;rounded=1;arcSize=12;edgeStyle=orthogonalEdgeStyle;startArrow=none;endArrow=block;endFill=1;exitX=-0.006;exitY=0.5;exitPerimeter=0;entryX=1.005;entryY=0.525;entryPerimeter=0;lucidId=aBl2-XN9TArK;" parent="1" source="dHADfr7kux95JGzyAdg1-54" target="dHADfr7kux95JGzyAdg1-5" edge="1">
          <mxGeometry width="100" height="100" relative="1" as="geometry">
            <Array as="points" />
          </mxGeometry>
        </mxCell>
        <mxCell id="dHADfr7kux95JGzyAdg1-56" value="Conditionneur&#xa;Cellule force&#xa;HX711" style="html=1;overflow=block;blockSpacing=1;whiteSpace=wrap;fontSize=20;spacing=3.8;strokeOpacity=100;rounded=1;absoluteArcSize=1;arcSize=9;strokeWidth=1.5;lucidId=RUl2H39iLhSZ;fillColor=#cdeb8b;strokeColor=#36393d;" parent="1" vertex="1">
          <mxGeometry x="1627" y="884" width="129" height="80" as="geometry" />
        </mxCell>
        <mxCell id="dHADfr7kux95JGzyAdg1-57" value="Conditionneur&#xa;Cellule force&#xa;HX711" style="html=1;overflow=block;blockSpacing=1;whiteSpace=wrap;fontSize=20;spacing=3.8;strokeOpacity=100;rounded=1;absoluteArcSize=1;arcSize=9;strokeWidth=1.5;lucidId=dVl2Au.kcAYe;fillColor=#cdeb8b;strokeColor=#36393d;" parent="1" vertex="1">
          <mxGeometry x="1468" y="884" width="129" height="80" as="geometry" />
        </mxCell>
        <mxCell id="dHADfr7kux95JGzyAdg1-58" value="Conditionneur&#xa;Cellule force&#xa;HX711" style="html=1;overflow=block;blockSpacing=1;whiteSpace=wrap;fontSize=20;spacing=3.8;strokeOpacity=100;rounded=1;absoluteArcSize=1;arcSize=9;strokeWidth=1.5;lucidId=dVl29gMZvtSj;fillColor=#cdeb8b;strokeColor=#36393d;" parent="1" vertex="1">
          <mxGeometry x="1783" y="884" width="129" height="86" as="geometry" />
        </mxCell>
        <mxCell id="dHADfr7kux95JGzyAdg1-59" value="Conditionneur&#xa;Cellule force&#xa;HX711" style="html=1;overflow=block;blockSpacing=1;whiteSpace=wrap;fontSize=20;spacing=3.8;strokeOpacity=100;rounded=1;absoluteArcSize=1;arcSize=9;strokeWidth=1.5;lucidId=eVl2-CQv_7~p;fillColor=#cdeb8b;strokeColor=#36393d;" parent="1" vertex="1">
          <mxGeometry x="1938" y="887" width="129" height="80" as="geometry" />
        </mxCell>
        <mxCell id="dHADfr7kux95JGzyAdg1-60" value="" style="html=1;jettySize=18;whiteSpace=wrap;fontSize=13;strokeColor=#008a0e;strokeOpacity=100;strokeWidth=1.5;rounded=1;arcSize=12;edgeStyle=orthogonalEdgeStyle;startArrow=block;startFill=1;endArrow=none;entryX=0.5;entryY=-0.009;entryPerimeter=0;lucidId=CVl2x13nre-T;" parent="1" target="dHADfr7kux95JGzyAdg1-57" edge="1">
          <mxGeometry width="100" height="100" relative="1" as="geometry">
            <Array as="points">
              <mxPoint x="1710" y="810" />
              <mxPoint x="1532" y="810" />
            </Array>
            <mxPoint x="1710" y="781" as="sourcePoint" />
          </mxGeometry>
        </mxCell>
        <mxCell id="dHADfr7kux95JGzyAdg1-61" value="" style="html=1;jettySize=18;whiteSpace=wrap;fontSize=13;strokeColor=#008a0e;strokeOpacity=100;strokeWidth=1.5;rounded=1;arcSize=12;edgeStyle=orthogonalEdgeStyle;startArrow=block;startFill=1;endArrow=none;entryX=0.5;entryY=-0.009;entryPerimeter=0;lucidId=4Vl2owp2-N0Y;" parent="1" target="dHADfr7kux95JGzyAdg1-56" edge="1">
          <mxGeometry width="100" height="100" relative="1" as="geometry">
            <Array as="points">
              <mxPoint x="1740" y="780" />
              <mxPoint x="1740" y="832" />
              <mxPoint x="1692" y="832" />
            </Array>
            <mxPoint x="1740" y="780" as="sourcePoint" />
          </mxGeometry>
        </mxCell>
        <mxCell id="dHADfr7kux95JGzyAdg1-62" value="" style="html=1;jettySize=18;whiteSpace=wrap;fontSize=13;strokeColor=#008a0e;strokeOpacity=100;strokeWidth=1.5;rounded=1;arcSize=12;edgeStyle=orthogonalEdgeStyle;startArrow=block;startFill=1;endArrow=none;exitX=0.681;exitY=1.006;exitPerimeter=0;entryX=0.5;entryY=-0.009;entryPerimeter=0;lucidId=mWl2KOU0v2QU;exitDx=0;exitDy=0;" parent="1" source="dHADfr7kux95JGzyAdg1-5" target="dHADfr7kux95JGzyAdg1-58" edge="1">
          <mxGeometry width="100" height="100" relative="1" as="geometry">
            <Array as="points" />
          </mxGeometry>
        </mxCell>
        <mxCell id="dHADfr7kux95JGzyAdg1-63" value="" style="html=1;jettySize=18;whiteSpace=wrap;fontSize=13;strokeColor=#008a0e;strokeOpacity=100;strokeWidth=1.5;rounded=1;arcSize=12;edgeStyle=orthogonalEdgeStyle;startArrow=block;startFill=1;endArrow=none;exitX=0.888;exitY=1.006;exitPerimeter=0;entryX=0.5;entryY=-0.009;entryPerimeter=0;lucidId=LWl2CUjEAij3;exitDx=0;exitDy=0;" parent="1" source="dHADfr7kux95JGzyAdg1-5" target="dHADfr7kux95JGzyAdg1-59" edge="1">
          <mxGeometry width="100" height="100" relative="1" as="geometry">
            <Array as="points">
              <mxPoint x="1811" y="810" />
              <mxPoint x="2002" y="810" />
            </Array>
          </mxGeometry>
        </mxCell>
        <mxCell id="dHADfr7kux95JGzyAdg1-64" value="" style="html=1;jettySize=18;whiteSpace=wrap;fontSize=13;strokeColor=#e81313;strokeOpacity=100;strokeWidth=2;rounded=1;arcSize=12;edgeStyle=orthogonalEdgeStyle;startArrow=block;startFill=1;endArrow=none;exitX=0.207;exitY=-0.009;exitPerimeter=0;entryX=1.005;entryY=0.888;entryPerimeter=0;lucidId=q1l2I2f_z2gF;curved=0;" parent="1" edge="1">
          <mxGeometry width="100" height="100" relative="1" as="geometry">
            <Array as="points">
              <mxPoint x="1494" y="857" />
              <mxPoint x="1965" y="857" />
              <mxPoint x="1965" y="757" />
            </Array>
            <mxPoint x="1493.703" y="883.2800000000002" as="sourcePoint" />
            <mxPoint x="1828.8" y="756.928" as="targetPoint" />
          </mxGeometry>
        </mxCell>
        <mxCell id="dHADfr7kux95JGzyAdg1-65" value="" style="html=1;jettySize=18;whiteSpace=wrap;fontSize=13;strokeColor=#e81313;strokeOpacity=100;strokeWidth=2;rounded=0;arcSize=12;edgeStyle=orthogonalEdgeStyle;startArrow=block;startFill=1;endArrow=none;exitX=0.216;exitY=-0.009;exitPerimeter=0;lucidId=F1l2730JvWF9;curved=0;" parent="1" source="dHADfr7kux95JGzyAdg1-56" edge="1">
          <mxGeometry width="100" height="100" relative="1" as="geometry">
            <Array as="points">
              <mxPoint x="1655" y="857" />
            </Array>
            <mxPoint x="1660" y="857" as="targetPoint" />
          </mxGeometry>
        </mxCell>
        <mxCell id="dHADfr7kux95JGzyAdg1-66" value="" style="html=1;jettySize=18;whiteSpace=wrap;fontSize=13;strokeColor=#e81313;strokeOpacity=100;strokeWidth=2;rounded=0;arcSize=12;edgeStyle=orthogonalEdgeStyle;startArrow=block;startFill=1;endArrow=none;exitX=0.257;exitY=-0.009;exitPerimeter=0;lucidId=V1l207W.sN5c;curved=0;" parent="1" source="dHADfr7kux95JGzyAdg1-58" edge="1">
          <mxGeometry width="100" height="100" relative="1" as="geometry">
            <Array as="points" />
            <mxPoint x="1816" y="857" as="targetPoint" />
          </mxGeometry>
        </mxCell>
        <mxCell id="dHADfr7kux95JGzyAdg1-67" value="" style="html=1;jettySize=18;whiteSpace=wrap;fontSize=13;strokeColor=#e81313;strokeOpacity=100;strokeWidth=2;rounded=0;arcSize=12;edgeStyle=orthogonalEdgeStyle;startArrow=block;startFill=1;endArrow=none;lucidId=k2l2Ns~3N1tw;curved=0;" parent="1" edge="1">
          <mxGeometry width="100" height="100" relative="1" as="geometry">
            <Array as="points">
              <mxPoint x="1964.5" y="885.84" />
              <mxPoint x="1964.5" y="885.84" />
              <mxPoint x="1964.5" y="856.84" />
            </Array>
            <mxPoint x="1965.5" y="857" as="targetPoint" />
            <mxPoint x="1965" y="887" as="sourcePoint" />
          </mxGeometry>
        </mxCell>
        <mxCell id="dHADfr7kux95JGzyAdg1-68" value="&lt;font face=&quot;Helvetica&quot;&gt;3.3V&lt;/font&gt;" style="html=1;overflow=block;blockSpacing=1;whiteSpace=wrap;fontSize=15;fontFamily=Cousine;fontColor=#3a414a;align=left;spacing=0;verticalAlign=middle;fillColor=none;strokeWidth=1.5;strokeColor=none;lucidId=v2l26z0juteI;" parent="1" vertex="1">
          <mxGeometry x="1783" y="745" width="48" height="22" as="geometry" />
        </mxCell>
        <mxCell id="dHADfr7kux95JGzyAdg1-69" value="" style="html=1;jettySize=18;whiteSpace=wrap;fontSize=13;strokeColor=#e81313;strokeOpacity=100;strokeWidth=2;rounded=1;arcSize=12;edgeStyle=orthogonalEdgeStyle;startArrow=none;endArrow=block;endFill=1;exitX=0.5;exitY=1.013;exitPerimeter=0;entryX=0.224;entryY=-0.01;entryPerimeter=0;lucidId=q3l2MF-iDhpW;" parent="1" source="dHADfr7kux95JGzyAdg1-53" target="dHADfr7kux95JGzyAdg1-17" edge="1">
          <mxGeometry width="100" height="100" relative="1" as="geometry">
            <Array as="points" />
          </mxGeometry>
        </mxCell>
        <mxCell id="dHADfr7kux95JGzyAdg1-70" value="" style="html=1;jettySize=18;whiteSpace=wrap;fontSize=13;strokeColor=#e81313;strokeOpacity=100;strokeWidth=2;rounded=0;arcSize=12;edgeStyle=orthogonalEdgeStyle;startArrow=none;endArrow=block;endFill=1;exitX=1.006;exitY=0.768;exitPerimeter=0;entryX=0.5;entryY=-0.013;entryPerimeter=0;lucidId=N3l2IinGHAsS;curved=0;" parent="1" source="dHADfr7kux95JGzyAdg1-13" target="dHADfr7kux95JGzyAdg1-53" edge="1">
          <mxGeometry width="100" height="100" relative="1" as="geometry">
            <Array as="points" />
          </mxGeometry>
        </mxCell>
        <mxCell id="dHADfr7kux95JGzyAdg1-71" value="&lt;font face=&quot;Helvetica&quot;&gt;3.3V&lt;/font&gt;" style="html=1;overflow=block;blockSpacing=1;whiteSpace=wrap;fontSize=15;fontFamily=Cousine;fontColor=#3a414a;align=left;spacing=0;verticalAlign=middle;fillColor=none;strokeWidth=1.5;strokeColor=none;lucidId=13l2PmKCMgW5;" parent="1" vertex="1">
          <mxGeometry x="1671" y="745" width="48" height="22" as="geometry" />
        </mxCell>
        <mxCell id="dHADfr7kux95JGzyAdg1-72" value="" style="html=1;jettySize=18;whiteSpace=wrap;fontSize=13;strokeColor=#e81313;strokeOpacity=100;strokeWidth=2;rounded=1;arcSize=12;edgeStyle=orthogonalEdgeStyle;startArrow=none;endArrow=block;endFill=1;entryX=0.794;entryY=1.01;entryPerimeter=0;lucidId=.3l2zNnErTDh;curved=0;" parent="1" target="dHADfr7kux95JGzyAdg1-17" edge="1">
          <mxGeometry width="100" height="100" relative="1" as="geometry">
            <Array as="points">
              <mxPoint x="1668" y="760" />
              <mxPoint x="1550" y="760" />
            </Array>
            <mxPoint x="1670" y="760" as="sourcePoint" />
          </mxGeometry>
        </mxCell>
        <mxCell id="dHADfr7kux95JGzyAdg1-73" value="&lt;font style=&quot;font-size: 20px;&quot; face=&quot;Helvetica&quot;&gt;VIN 7-24V&lt;/font&gt;" style="html=1;overflow=block;blockSpacing=1;whiteSpace=wrap;fontSize=15;fontFamily=Cousine;fontColor=#3a414a;align=left;spacing=0;verticalAlign=middle;fillColor=none;strokeWidth=1.5;strokeColor=none;lucidId=z4l2SBInwVun;" parent="1" vertex="1">
          <mxGeometry x="1698" y="541" width="100" height="34" as="geometry" />
        </mxCell>
        <mxCell id="dHADfr7kux95JGzyAdg1-74" value="&lt;font style=&quot;font-size: 20px;&quot; face=&quot;Helvetica&quot;&gt;VIN 7-24V&lt;/font&gt;" style="html=1;overflow=block;blockSpacing=1;whiteSpace=wrap;fontSize=15;fontFamily=Cousine;fontColor=#3a414a;align=left;spacing=0;verticalAlign=middle;fillColor=#ffffff;strokeWidth=1.5;strokeColor=none;lucidId=04l27GrsJnOX;" parent="1" vertex="1">
          <mxGeometry x="1309" y="549" width="113" height="23" as="geometry" />
        </mxCell>
        <mxCell id="dHADfr7kux95JGzyAdg1-76" value="" style="group;dropTarget=0;pointerEvents=0;" parent="1" vertex="1">
          <mxGeometry x="1906" y="579" width="16" height="16" as="geometry" />
        </mxCell>
        <mxCell id="dHADfr7kux95JGzyAdg1-77" value="" style="html=1;overflow=block;blockSpacing=1;whiteSpace=wrap;ellipse;fontSize=13;align=center;spacing=3.8;strokeColor=#e81313;strokeOpacity=100;fillOpacity=100;rounded=1;absoluteArcSize=1;arcSize=9;fillColor=#e81313;strokeWidth=0.8;lucidId=j9l2DxXG1-Rb;" parent="dHADfr7kux95JGzyAdg1-76" vertex="1">
          <mxGeometry width="16" height="16" as="geometry" />
        </mxCell>
        <mxCell id="dHADfr7kux95JGzyAdg1-78" value="" style="html=1;overflow=block;blockSpacing=1;whiteSpace=wrap;ellipse;fontSize=13;align=center;spacing=3.8;strokeColor=#e81313;strokeOpacity=100;fillOpacity=0;rounded=1;absoluteArcSize=1;arcSize=9;fillColor=#000000;strokeWidth=0.8;lucidId=j9l2u5ucRt0_;" parent="dHADfr7kux95JGzyAdg1-76" vertex="1">
          <mxGeometry width="16" height="16" as="geometry" />
        </mxCell>
        <mxCell id="dHADfr7kux95JGzyAdg1-87" value="" style="html=1;jettySize=18;whiteSpace=wrap;fontSize=13;strokeColor=#008a0e;strokeOpacity=100;strokeWidth=1.5;rounded=1;arcSize=12;edgeStyle=orthogonalEdgeStyle;startArrow=none;endArrow=block;endFill=1;exitX=1.005;exitY=0.195;exitPerimeter=0;entryX=0.5;entryY=1.024;entryPerimeter=0;lucidId=u_l2jn-2nJ0M;" parent="1" source="dHADfr7kux95JGzyAdg1-5" target="dHADfr7kux95JGzyAdg1-77" edge="1">
          <mxGeometry width="100" height="100" relative="1" as="geometry">
            <Array as="points" />
          </mxGeometry>
        </mxCell>
        <mxCell id="dHADfr7kux95JGzyAdg1-88" value="" style="group;dropTarget=0;pointerEvents=0;" parent="1" vertex="1">
          <mxGeometry x="1959" y="579" width="16" height="16" as="geometry" />
        </mxCell>
        <mxCell id="dHADfr7kux95JGzyAdg1-89" value="" style="html=1;overflow=block;blockSpacing=1;whiteSpace=wrap;ellipse;fontSize=13;align=center;spacing=3.8;strokeColor=#008a0e;strokeOpacity=100;fillOpacity=100;rounded=1;absoluteArcSize=1;arcSize=9;fillColor=#008a0e;strokeWidth=0.8;lucidId=3_l2w4hO9F03;" parent="dHADfr7kux95JGzyAdg1-88" vertex="1">
          <mxGeometry width="16" height="16" as="geometry" />
        </mxCell>
        <mxCell id="dHADfr7kux95JGzyAdg1-90" value="" style="html=1;overflow=block;blockSpacing=1;whiteSpace=wrap;ellipse;fontSize=13;align=center;spacing=3.8;strokeColor=#008a0e;strokeOpacity=100;fillOpacity=100;rounded=1;absoluteArcSize=1;arcSize=9;fillColor=#008a0e;strokeWidth=0.8;lucidId=3_l2h9yo_aPl;" parent="dHADfr7kux95JGzyAdg1-88" vertex="1">
          <mxGeometry width="16" height="16" as="geometry" />
        </mxCell>
        <mxCell id="dHADfr7kux95JGzyAdg1-91" value="" style="html=1;jettySize=18;whiteSpace=wrap;fontSize=13;strokeColor=#008a0e;strokeOpacity=100;strokeWidth=1.5;rounded=1;arcSize=12;edgeStyle=orthogonalEdgeStyle;startArrow=none;endArrow=block;endFill=1;exitX=1.005;exitY=0.253;exitPerimeter=0;entryX=0.5;entryY=1.024;entryPerimeter=0;lucidId=3_l2qD4253Nh;" parent="1" source="dHADfr7kux95JGzyAdg1-5" target="dHADfr7kux95JGzyAdg1-89" edge="1">
          <mxGeometry width="100" height="100" relative="1" as="geometry">
            <Array as="points" />
          </mxGeometry>
        </mxCell>
        <mxCell id="dHADfr7kux95JGzyAdg1-92" value="&lt;font face=&quot;Helvetica&quot;&gt;LED_R&lt;/font&gt;" style="html=1;overflow=block;blockSpacing=1;whiteSpace=wrap;fontSize=15;fontFamily=Cousine;fontColor=#3a414a;align=left;spacing=0;verticalAlign=middle;fillColor=#ffffff;strokeWidth=1.5;strokeColor=none;lucidId=L.l2K7xMMUiG;" parent="1" vertex="1">
          <mxGeometry x="1887" y="556" width="48" height="22" as="geometry" />
        </mxCell>
        <mxCell id="dHADfr7kux95JGzyAdg1-93" value="&lt;font face=&quot;Helvetica&quot;&gt;LED_V&lt;/font&gt;" style="html=1;overflow=block;blockSpacing=1;whiteSpace=wrap;fontSize=15;fontFamily=Cousine;fontColor=#3a414a;align=left;spacing=0;verticalAlign=middle;fillColor=#ffffff;strokeWidth=1.5;strokeColor=none;lucidId=1.l2Pd~q.kod;" parent="1" vertex="1">
          <mxGeometry x="1946" y="556" width="48" height="22" as="geometry" />
        </mxCell>
        <mxCell id="dHADfr7kux95JGzyAdg1-94" value="" style="group;dropTarget=0;pointerEvents=0;" parent="1" vertex="1">
          <mxGeometry x="1929" y="510" width="16" height="16" as="geometry" />
        </mxCell>
        <mxCell id="dHADfr7kux95JGzyAdg1-95" value="" style="html=1;overflow=block;blockSpacing=1;whiteSpace=wrap;ellipse;fontSize=13;align=center;spacing=3.8;strokeColor=#1071e5;strokeOpacity=100;fillOpacity=100;rounded=1;absoluteArcSize=1;arcSize=9;fillColor=#1071e5;strokeWidth=0.8;lucidId=zdm2e6pyiLZf;" parent="dHADfr7kux95JGzyAdg1-94" vertex="1">
          <mxGeometry width="16" height="16" as="geometry" />
        </mxCell>
        <mxCell id="dHADfr7kux95JGzyAdg1-96" value=" " style="html=1;overflow=block;blockSpacing=1;whiteSpace=wrap;fontSize=16.7;fontColor=#333333;align=center;spacing=3.8;strokeOpacity=0;fillOpacity=100;fillColor=#ffffff;strokeWidth=0.8;lucidId=zdm20fibonnE;" parent="dHADfr7kux95JGzyAdg1-94" vertex="1">
          <mxGeometry x="5.5" width="5" height="16" as="geometry" />
        </mxCell>
        <mxCell id="dHADfr7kux95JGzyAdg1-97" value=" " style="html=1;overflow=block;blockSpacing=1;whiteSpace=wrap;fontSize=16.7;fontColor=#333333;align=center;spacing=3.8;strokeOpacity=0;fillOpacity=100;fillColor=#ffffff;strokeWidth=0.8;lucidId=zdm2JMue53gv;" parent="dHADfr7kux95JGzyAdg1-94" vertex="1">
          <mxGeometry x="5.5" width="5" height="16" as="geometry" />
        </mxCell>
        <mxCell id="dHADfr7kux95JGzyAdg1-98" value="" style="html=1;overflow=block;blockSpacing=1;whiteSpace=wrap;ellipse;fontSize=13;align=center;spacing=3.8;strokeColor=#1071e5;strokeOpacity=100;fillOpacity=0;rounded=1;absoluteArcSize=1;arcSize=9;fillColor=#000000;strokeWidth=0.8;lucidId=zdm2wqPHejAZ;" parent="dHADfr7kux95JGzyAdg1-94" vertex="1">
          <mxGeometry width="16" height="16" as="geometry" />
        </mxCell>
        <mxCell id="dHADfr7kux95JGzyAdg1-99" value="" style="html=1;jettySize=18;whiteSpace=wrap;fontSize=13;strokeColor=#008a0e;strokeOpacity=100;strokeWidth=1.5;rounded=1;arcSize=12;edgeStyle=orthogonalEdgeStyle;startArrow=none;endArrow=block;endFill=1;exitX=0.767;exitY=-0.004;exitPerimeter=0;entryX=-0.008;entryY=0.5;entryPerimeter=0;lucidId=Wdm2D~14uIIP;" parent="1" source="dHADfr7kux95JGzyAdg1-5" target="dHADfr7kux95JGzyAdg1-1" edge="1">
          <mxGeometry width="100" height="100" relative="1" as="geometry">
            <Array as="points" />
          </mxGeometry>
        </mxCell>
        <mxCell id="dHADfr7kux95JGzyAdg1-100" value="" style="html=1;jettySize=18;whiteSpace=wrap;fontSize=13;strokeColor=#008a0e;strokeOpacity=100;strokeWidth=1.5;rounded=1;arcSize=12;edgeStyle=orthogonalEdgeStyle;startArrow=none;endArrow=block;endFill=1;exitX=0.848;exitY=-0.004;exitPerimeter=0;entryX=-0.008;entryY=0.5;entryPerimeter=0;lucidId=7dm2jm.SXScr;" parent="1" source="dHADfr7kux95JGzyAdg1-5" target="dHADfr7kux95JGzyAdg1-2" edge="1">
          <mxGeometry width="100" height="100" relative="1" as="geometry">
            <Array as="points" />
          </mxGeometry>
        </mxCell>
        <mxCell id="dHADfr7kux95JGzyAdg1-101" value="" style="html=1;jettySize=18;whiteSpace=wrap;fontSize=13;strokeColor=#008a0e;strokeOpacity=100;strokeWidth=1.5;rounded=1;arcSize=12;edgeStyle=orthogonalEdgeStyle;startArrow=none;endArrow=block;endFill=1;exitX=0.933;exitY=-0.004;exitPerimeter=0;entryX=-0.008;entryY=0.493;entryPerimeter=0;lucidId=iem2SsWHVqdZ;" parent="1" source="dHADfr7kux95JGzyAdg1-5" target="dHADfr7kux95JGzyAdg1-3" edge="1">
          <mxGeometry width="100" height="100" relative="1" as="geometry">
            <Array as="points" />
          </mxGeometry>
        </mxCell>
        <mxCell id="dHADfr7kux95JGzyAdg1-103" value="" style="html=1;overflow=block;blockSpacing=1;whiteSpace=wrap;fontSize=13;spacing=3.8;strokeColor=#3a414a;strokeOpacity=100;rounded=1;absoluteArcSize=1;arcSize=9;strokeWidth=3.8;lucidId=_JeY~3d14zf1;" parent="1" vertex="1">
          <mxGeometry x="2590" y="25" width="1320" height="990" as="geometry" />
        </mxCell>
        <mxCell id="dHADfr7kux95JGzyAdg1-104" value="BATTERIE" style="html=1;overflow=block;blockSpacing=1;whiteSpace=wrap;fontSize=30;fontColor=#3a414a;spacing=3.8;strokeColor=#3a414a;strokeOpacity=100;rounded=1;absoluteArcSize=1;arcSize=9;strokeWidth=3.8;lucidId=RLeYC-dHbraX;" parent="1" vertex="1">
          <mxGeometry x="2670" y="155" width="315" height="720" as="geometry" />
        </mxCell>
        <mxCell id="dHADfr7kux95JGzyAdg1-105" value="Support &#xa;ARDUINO&#xa;RP2040" style="html=1;overflow=block;blockSpacing=1;whiteSpace=wrap;fontSize=30;fontColor=#3a414a;spacing=3.8;strokeColor=#3a414a;strokeOpacity=100;rounded=1;absoluteArcSize=1;arcSize=9;strokeWidth=3.8;lucidId=JMeYb-t2PyGa;" parent="1" vertex="1">
          <mxGeometry x="3464" y="500" width="243" height="324" as="geometry" />
        </mxCell>
        <mxCell id="dHADfr7kux95JGzyAdg1-106" value="4G" style="html=1;overflow=block;blockSpacing=1;whiteSpace=wrap;fontSize=40;fontColor=#3a414a;spacing=3.8;strokeColor=#3a414a;strokeOpacity=100;rounded=1;absoluteArcSize=1;arcSize=9;strokeWidth=3.8;lucidId=fNeY4c.ztQ67;" parent="1" vertex="1">
          <mxGeometry x="3075" y="171" width="252" height="330" as="geometry" />
        </mxCell>
        <mxCell id="dHADfr7kux95JGzyAdg1-107" value="A1" style="html=1;overflow=block;blockSpacing=1;whiteSpace=wrap;fontSize=30;fontColor=#3a414a;spacing=3.8;strokeColor=#3a414a;strokeOpacity=100;rounded=1;absoluteArcSize=1;arcSize=9;strokeWidth=3.8;lucidId=5NeYnYuBeLoQ;" parent="1" vertex="1">
          <mxGeometry x="3766" y="755" width="75" height="75" as="geometry" />
        </mxCell>
        <mxCell id="dHADfr7kux95JGzyAdg1-108" value="A2" style="html=1;overflow=block;blockSpacing=1;whiteSpace=wrap;fontSize=30;fontColor=#3a414a;spacing=3.8;strokeColor=#3a414a;strokeOpacity=100;rounded=1;absoluteArcSize=1;arcSize=9;strokeWidth=3.8;lucidId=lOeYmCFmFFib;" parent="1" vertex="1">
          <mxGeometry x="3766" y="620" width="75" height="75" as="geometry" />
        </mxCell>
        <mxCell id="dHADfr7kux95JGzyAdg1-109" value="A4" style="html=1;overflow=block;blockSpacing=1;whiteSpace=wrap;fontSize=30;fontColor=#3a414a;spacing=3.8;strokeColor=#3a414a;strokeOpacity=100;rounded=1;absoluteArcSize=1;arcSize=9;strokeWidth=3.8;lucidId=lOeY6eGX7rYQ;" parent="1" vertex="1">
          <mxGeometry x="3766" y="332" width="75" height="75" as="geometry" />
        </mxCell>
        <mxCell id="dHADfr7kux95JGzyAdg1-110" value="A3" style="html=1;overflow=block;blockSpacing=1;whiteSpace=wrap;fontSize=30;fontColor=#3a414a;spacing=3.8;strokeColor=#3a414a;strokeOpacity=100;rounded=1;absoluteArcSize=1;arcSize=9;strokeWidth=3.8;lucidId=mOeYgsnh7D5f;" parent="1" vertex="1">
          <mxGeometry x="3766" y="470" width="75" height="75" as="geometry" />
        </mxCell>
        <mxCell id="dHADfr7kux95JGzyAdg1-111" value="T°C" style="html=1;overflow=block;blockSpacing=1;whiteSpace=wrap;fontSize=30;fontColor=#3a414a;spacing=3.8;strokeColor=#3a414a;strokeOpacity=100;rounded=1;absoluteArcSize=1;arcSize=9;strokeWidth=3.8;lucidId=SOeYmxNMebTR;" parent="1" vertex="1">
          <mxGeometry x="3766" y="177" width="75" height="75" as="geometry" />
        </mxCell>
        <mxCell id="dHADfr7kux95JGzyAdg1-112" value="GROVE breadboard&#xa;LED V cligno&#xa;LED B cligno" style="html=1;overflow=block;blockSpacing=1;whiteSpace=wrap;fontSize=30;fontColor=#3a414a;spacing=3.8;strokeColor=#3a414a;strokeOpacity=100;rounded=1;absoluteArcSize=1;arcSize=9;strokeWidth=3.8;lucidId=5OeY6a6Fq0Qe;" parent="1" vertex="1">
          <mxGeometry x="3416" y="171" width="286" height="191" as="geometry" />
        </mxCell>
        <mxCell id="dHADfr7kux95JGzyAdg1-113" value="GROVE&#xa;LED V" style="html=1;overflow=block;blockSpacing=1;whiteSpace=wrap;fontSize=21.7;fontColor=#3a414a;spacing=3.8;strokeColor=#3a414a;strokeOpacity=100;rounded=1;absoluteArcSize=1;arcSize=9;strokeWidth=3.8;lucidId=iPeYY73QoQCU;" parent="1" vertex="1">
          <mxGeometry x="3621" y="378" width="71" height="91" as="geometry" />
        </mxCell>
        <mxCell id="dHADfr7kux95JGzyAdg1-114" value="BALANCES" style="html=1;overflow=block;blockSpacing=1;whiteSpace=wrap;fontSize=20;fontColor=#3a414a;spacing=3.8;strokeColor=#3a414a;strokeOpacity=100;rounded=1;absoluteArcSize=1;arcSize=9;strokeWidth=0.8;lucidId=UPeYiuzNl4qE;" parent="1" vertex="1">
          <mxGeometry x="3969" y="337" width="120" height="120" as="geometry" />
        </mxCell>
        <mxCell id="dHADfr7kux95JGzyAdg1-115" value="CAPTEUR" style="html=1;overflow=block;blockSpacing=1;whiteSpace=wrap;fontSize=23.3;fontColor=#3a414a;spacing=3.8;strokeColor=#3a414a;strokeOpacity=100;rounded=1;absoluteArcSize=1;arcSize=9;strokeWidth=0.8;lucidId=4PeYgNP5lt~o;" parent="1" vertex="1">
          <mxGeometry x="3958" y="146" width="120" height="120" as="geometry" />
        </mxCell>
        <mxCell id="dHADfr7kux95JGzyAdg1-116" value="GROVE&#xa;LED R" style="html=1;overflow=block;blockSpacing=1;whiteSpace=wrap;fontSize=21.7;fontColor=#3a414a;spacing=3.8;strokeColor=#3a414a;strokeOpacity=100;rounded=1;absoluteArcSize=1;arcSize=9;strokeWidth=3.8;lucidId=loO1xbrGOOTb;" parent="1" vertex="1">
          <mxGeometry x="3479" y="390" width="81" height="67" as="geometry" />
        </mxCell>
        <mxCell id="dHADfr7kux95JGzyAdg1-117" value="GROVE breadboard&#xa;Convertisseur niveaux&#xa;logiques 5V &amp;lt;-&amp;gt; 3.3V" style="html=1;overflow=block;blockSpacing=1;whiteSpace=wrap;fontSize=30;fontColor=#3a414a;spacing=3.8;strokeColor=#3a414a;strokeOpacity=100;rounded=1;absoluteArcSize=1;arcSize=9;strokeWidth=3.8;lucidId=HDO1joA996PV;" parent="1" vertex="1">
          <mxGeometry x="3083" y="602" width="289" height="151" as="geometry" />
        </mxCell>
        <mxCell id="dHADfr7kux95JGzyAdg1-102" value="JLC  27 mai : j&#39;ai  commencé à redisposer les  composants en focntion de ce qu&#39;on s&#39;est dit" style="html=1;overflow=block;blockSpacing=1;whiteSpace=wrap;fontSize=16.7;fontColor=#3a414a;align=left;spacing=0;verticalAlign=top;fillColor=#ffffff;strokeWidth=1.5;strokeColor=none;lucidId=K7P1fwpnOQA8;" parent="1" vertex="1">
          <mxGeometry x="2700" y="60" width="448" height="59" as="geometry" />
        </mxCell>
        <mxCell id="dHADfr7kux95JGzyAdg1-118" value="" style="html=1;jettySize=18;whiteSpace=wrap;fontSize=13;strokeColor=#e81313;strokeOpacity=100;strokeWidth=2;rounded=1;arcSize=12;edgeStyle=orthogonalEdgeStyle;startArrow=none;endArrow=block;endFill=1;entryX=0.5;entryY=1;lucidId=.3l2zNnErTDh;curved=0;entryDx=0;entryDy=0;" parent="1" target="dHADfr7kux95JGzyAdg1-54" edge="1">
          <mxGeometry width="100" height="100" relative="1" as="geometry">
            <Array as="points" />
            <mxPoint x="1830" y="740" as="sourcePoint" />
            <mxPoint x="1560" y="711" as="targetPoint" />
          </mxGeometry>
        </mxCell>
        <mxCell id="dHADfr7kux95JGzyAdg1-120" value="" style="group" parent="1" vertex="1" connectable="0">
          <mxGeometry x="1929" y="336" width="21" height="20" as="geometry" />
        </mxCell>
        <mxCell id="dHADfr7kux95JGzyAdg1-80" value="" style="html=1;overflow=block;blockSpacing=1;whiteSpace=wrap;ellipse;fontSize=13;align=center;spacing=3.8;strokeColor=#1071e5;strokeOpacity=100;fillOpacity=100;rounded=1;absoluteArcSize=1;arcSize=9;fillColor=#1071e5;strokeWidth=0.8;lucidId=j9l2VyBEFBY~;" parent="dHADfr7kux95JGzyAdg1-120" vertex="1">
          <mxGeometry y="2" width="16" height="16" as="geometry" />
        </mxCell>
        <mxCell id="dHADfr7kux95JGzyAdg1-81" value="" style="html=1;overflow=block;blockSpacing=1;whiteSpace=wrap;fontSize=13;align=center;spacing=3.8;strokeOpacity=0;fillOpacity=100;fillColor=#ffffff;strokeWidth=0.8;lucidId=j9l2b39aMz3q;" parent="dHADfr7kux95JGzyAdg1-120" vertex="1">
          <mxGeometry x="7" width="14" height="20" as="geometry" />
        </mxCell>
        <mxCell id="dHADfr7kux95JGzyAdg1-82" value="" style="html=1;overflow=block;blockSpacing=1;whiteSpace=wrap;ellipse;fontSize=13;align=center;spacing=3.8;strokeColor=#1071e5;strokeOpacity=100;fillOpacity=0;rounded=1;absoluteArcSize=1;arcSize=9;fillColor=#000000;strokeWidth=0.8;lucidId=j9l2OA46zekw;" parent="dHADfr7kux95JGzyAdg1-120" vertex="1">
          <mxGeometry y="2" width="16" height="16" as="geometry" />
        </mxCell>
        <mxCell id="dHADfr7kux95JGzyAdg1-121" value="" style="group" parent="1" vertex="1" connectable="0">
          <mxGeometry x="1930" y="420" width="19" height="20" as="geometry" />
        </mxCell>
        <mxCell id="dHADfr7kux95JGzyAdg1-84" value="" style="html=1;overflow=block;blockSpacing=1;whiteSpace=wrap;ellipse;fontSize=13;align=center;spacing=3.8;strokeColor=#008a0e;strokeOpacity=100;fillOpacity=100;rounded=1;absoluteArcSize=1;arcSize=9;fillColor=#008a0e;strokeWidth=0.8;lucidId=j9l2H~zrD157;" parent="dHADfr7kux95JGzyAdg1-121" vertex="1">
          <mxGeometry y="2" width="16" height="16" as="geometry" />
        </mxCell>
        <mxCell id="dHADfr7kux95JGzyAdg1-85" value="" style="html=1;overflow=block;blockSpacing=1;whiteSpace=wrap;fontSize=13;align=center;spacing=3.8;strokeOpacity=0;fillOpacity=100;fillColor=#ffffff;strokeWidth=0.8;lucidId=j9l2~eJ8LWpc;" parent="dHADfr7kux95JGzyAdg1-121" vertex="1">
          <mxGeometry x="7" width="12" height="20" as="geometry" />
        </mxCell>
        <mxCell id="dHADfr7kux95JGzyAdg1-86" value="" style="html=1;overflow=block;blockSpacing=1;whiteSpace=wrap;ellipse;fontSize=13;align=center;spacing=3.8;strokeColor=#008a0e;strokeOpacity=100;fillOpacity=0;rounded=1;absoluteArcSize=1;arcSize=9;fillColor=#000000;strokeWidth=0.8;lucidId=j9l2GdCPN9mn;" parent="dHADfr7kux95JGzyAdg1-121" vertex="1">
          <mxGeometry y="2" width="16" height="16" as="geometry" />
        </mxCell>
      </root>
    </mxGraphModel>
  </diagram>
</mxfile>
